<?xml version="1.0" encoding="UTF-8" standalone="no"?>
<!-- Created with Inkscape (http://www.inkscape.org/) -->

<svg
   xmlns:dc="http://purl.org/dc/elements/1.1/"
   xmlns:cc="http://creativecommons.org/ns#"
   xmlns:rdf="http://www.w3.org/1999/02/22-rdf-syntax-ns#"
   xmlns:svg="http://www.w3.org/2000/svg"
   xmlns="http://www.w3.org/2000/svg"
   xmlns:sodipodi="http://sodipodi.sourceforge.net/DTD/sodipodi-0.dtd"
   xmlns:inkscape="http://www.inkscape.org/namespaces/inkscape"
   width="612.94244"
   height="218.64897"
   viewBox="0 0 162.17435 57.850876"
   version="1.1"
   id="svg8"
   inkscape:version="0.92.3 (2405546, 2018-03-11)"
   sodipodi:docname="linux_lts_release_roadmap.svg">
  <defs
     id="defs2" />
  <sodipodi:namedview
     id="base"
     pagecolor="#ffffff"
     bordercolor="#666666"
     borderopacity="1.0"
     inkscape:pageopacity="0.0"
     inkscape:pageshadow="2"
     inkscape:zoom="1.2904964"
     inkscape:cx="-39.90712"
     inkscape:cy="109.32449"
     inkscape:document-units="px"
     inkscape:current-layer="layer1"
     showgrid="true"
     units="px"
     inkscape:window-width="2292"
     inkscape:window-height="897"
     inkscape:window-x="104"
     inkscape:window-y="164"
     inkscape:window-maximized="0"
     inkscape:measure-start="52.7902,140.688"
     inkscape:measure-end="302.79,50.6885">
    <inkscape:grid
       type="xygrid"
       id="grid815"
       originx="20.622276"
       originy="-248.05812" />
  </sodipodi:namedview>
  <metadata
     id="metadata5">
    <rdf:RDF>
      <cc:Work
         rdf:about="">
        <dc:format>image/svg+xml</dc:format>
        <dc:type
           rdf:resource="http://purl.org/dc/dcmitype/StillImage" />
        <dc:title />
      </cc:Work>
    </rdf:RDF>
  </metadata>
  <g
     inkscape:label="Layer 1"
     inkscape:groupmode="layer"
     id="layer1"
     transform="translate(20.622278,8.9089846)">
    <path
       style="fill:none;stroke:#000000;stroke-width:0.52916664;stroke-linecap:butt;stroke-linejoin:miter;stroke-miterlimit:4;stroke-dasharray:none;stroke-opacity:1"
       d="M 63.5,5.958325 H 127"
       id="path4520-3"
       inkscape:connector-curvature="0" />
    <text
       xml:space="preserve"
       style="font-style:normal;font-weight:normal;font-size:4.23333311px;line-height:1.25;font-family:sans-serif;letter-spacing:0px;word-spacing:0px;fill:#000000;fill-opacity:1;stroke:none;stroke-width:0.26458332"
       x="-5.3640137"
       y="43.590279"
       id="text4545"><tspan
         sodipodi:role="line"
         id="tspan4543"
         x="-5.3640137"
         y="43.590279"
         style="stroke-width:0.26458332">Nov</tspan><tspan
         sodipodi:role="line"
         x="-5.3640137"
         y="48.881947"
         style="stroke-width:0.26458332"
         id="tspan4559">2017</tspan></text>
    <text
       xml:space="preserve"
       style="font-style:normal;font-weight:normal;font-size:4.23333311px;line-height:1.25;font-family:sans-serif;letter-spacing:0px;word-spacing:0px;fill:#000000;fill-opacity:1;stroke:none;stroke-width:0.26458332"
       x="25.857853"
       y="43.590279"
       id="text4549"><tspan
         sodipodi:role="line"
         id="tspan4547"
         x="25.857853"
         y="43.590279"
         style="stroke-width:0.26458332">~Dec</tspan><tspan
         sodipodi:role="line"
         x="25.857853"
         y="48.881947"
         style="stroke-width:0.26458332"
         id="tspan4555">2018</tspan></text>
    <text
       xml:space="preserve"
       style="font-style:normal;font-weight:normal;font-size:4.23333311px;line-height:1.25;font-family:sans-serif;letter-spacing:0px;word-spacing:0px;fill:#000000;fill-opacity:1;stroke:none;stroke-width:0.26458332"
       x="57.607853"
       y="43.590279"
       id="text4553"><tspan
         sodipodi:role="line"
         id="tspan4551"
         x="57.607853"
         y="43.590279"
         style="stroke-width:0.26458332">~Dec</tspan><tspan
         sodipodi:role="line"
         x="57.607853"
         y="48.881947"
         style="stroke-width:0.26458332"
         id="tspan4557">2019</tspan></text>
    <path
       style="fill:none;stroke:#000000;stroke-width:0.52916664;stroke-linecap:butt;stroke-linejoin:miter;stroke-miterlimit:4;stroke-dasharray:none;stroke-opacity:1"
       d="m 63.5,4.6354083 v 1.322917"
       id="path4561-5"
       inkscape:connector-curvature="0" />
    <path
       style="fill:none;stroke:#000000;stroke-width:0.52916664;stroke-linecap:butt;stroke-linejoin:miter;stroke-miterlimit:4;stroke-dasharray:none;stroke-opacity:1"
       d="m 127,4.6354083 v 1.322917"
       id="path4561-7-2"
       inkscape:connector-curvature="0" />
    <text
       xml:space="preserve"
       style="font-style:normal;font-weight:normal;font-size:4.23333311px;line-height:1.25;font-family:sans-serif;letter-spacing:0px;word-spacing:0px;fill:#000000;fill-opacity:1;stroke:none;stroke-width:0.26458332"
       x="89.357857"
       y="43.590279"
       id="text4553-9"><tspan
         sodipodi:role="line"
         id="tspan4551-1"
         x="89.357857"
         y="43.590279"
         style="stroke-width:0.26458332">~Dec</tspan><tspan
         sodipodi:role="line"
         x="89.357857"
         y="48.881947"
         style="stroke-width:0.26458332"
         id="tspan4557-2">2021</tspan></text>
    <text
       xml:space="preserve"
       style="font-style:normal;font-weight:normal;font-size:4.23333311px;line-height:1.25;font-family:sans-serif;letter-spacing:0px;word-spacing:0px;fill:#000000;fill-opacity:1;stroke:none;stroke-width:0.26458332"
       x="121.10786"
       y="43.590279"
       id="text4553-9-7"><tspan
         sodipodi:role="line"
         id="tspan4551-1-0"
         x="121.10786"
         y="43.590279"
         style="stroke-width:0.26458332">~Dec</tspan><tspan
         sodipodi:role="line"
         x="121.10786"
         y="48.881947"
         style="stroke-width:0.26458332"
         id="tspan4557-2-9">2022</tspan></text>
    <path
       style="fill:none;stroke:#000000;stroke-width:0.52916664;stroke-linecap:butt;stroke-linejoin:miter;stroke-miterlimit:4;stroke-dasharray:none;stroke-opacity:1"
       d="m 95.25,-4.6250084 h 35.71875"
       id="path4520-3-3"
       inkscape:connector-curvature="0"
       sodipodi:nodetypes="cc" />
    <path
       style="fill:none;stroke:#000000;stroke-width:0.52916664;stroke-linecap:butt;stroke-linejoin:miter;stroke-miterlimit:4;stroke-dasharray:none;stroke-opacity:1"
       d="m 95.25,-5.9479251 v 1.322917"
       id="path4561-5-6"
       inkscape:connector-curvature="0" />
    <text
       xml:space="preserve"
       style="font-style:normal;font-weight:normal;font-size:4.23333311px;line-height:1.25;font-family:sans-serif;letter-spacing:0px;word-spacing:0px;fill:#000000;fill-opacity:1;stroke:none;stroke-width:0.26458332"
       x="41.376591"
       y="4.7870278"
       id="text4704"><tspan
         sodipodi:role="line"
         id="tspan4702"
         x="41.376591"
         y="4.7870278"
         style="stroke-width:0.26458332">Linux</tspan><tspan
         sodipodi:role="line"
         x="41.376591"
         y="10.078694"
         style="stroke-width:0.26458332"
         id="tspan4706">~4.25</tspan></text>
    <text
       xml:space="preserve"
       style="font-style:normal;font-weight:normal;font-size:4.23333311px;line-height:1.25;font-family:sans-serif;letter-spacing:0px;word-spacing:0px;fill:#000000;fill-opacity:1;stroke:none;stroke-width:0.26458332"
       x="73.140015"
       y="-5.6926436"
       id="text4710"><tspan
         sodipodi:role="line"
         id="tspan4708"
         x="73.140015"
         y="-5.6926436"
         style="stroke-width:0.26458332">Linux</tspan><tspan
         sodipodi:role="line"
         x="73.140015"
         y="-0.40097725"
         style="stroke-width:0.26458332"
         id="tspan4712">~4.30</tspan></text>
    <path
       style="fill:none;stroke:#000000;stroke-width:0.5291667;stroke-linecap:butt;stroke-linejoin:miter;stroke-miterlimit:4;stroke-dasharray:1.05833334, 0.52916667;stroke-dashoffset:0;stroke-opacity:1"
       d="M 141.55208,-4.6250084 H 130.96875"
       id="path4714"
       inkscape:connector-curvature="0" />
    <g
       transform="translate(63.5,-21.166667)"
       id="g4952-2">
      <path
         inkscape:connector-curvature="0"
         id="path4933-61"
         d="M -1.4072173e-6,27.124997 H -6.6145847"
         style="fill:none;stroke:#dc04f9;stroke-width:0.5291667;stroke-linecap:butt;stroke-linejoin:miter;stroke-miterlimit:4;stroke-dasharray:none;stroke-opacity:1" />
      <path
         inkscape:connector-curvature="0"
         id="path4933-6-8"
         d="m -6.6145844,25.802082 v 1.322917"
         style="fill:none;stroke:#dc04f9;stroke-width:0.5291667;stroke-linecap:butt;stroke-linejoin:miter;stroke-miterlimit:4;stroke-dasharray:none;stroke-opacity:1" />
    </g>
    <g
       transform="translate(95.25,-31.75)"
       id="g4952-2-0">
      <path
         inkscape:connector-curvature="0"
         id="path4933-61-2"
         d="M -1.4072173e-6,27.124997 H -6.6145847"
         style="fill:none;stroke:#dc04f9;stroke-width:0.5291667;stroke-linecap:butt;stroke-linejoin:miter;stroke-miterlimit:4;stroke-dasharray:none;stroke-opacity:1" />
      <path
         inkscape:connector-curvature="0"
         id="path4933-6-8-3"
         d="m -6.6145844,25.802082 v 1.322917"
         style="fill:none;stroke:#dc04f9;stroke-width:0.5291667;stroke-linecap:butt;stroke-linejoin:miter;stroke-miterlimit:4;stroke-dasharray:none;stroke-opacity:1" />
    </g>
    <g
       id="g6359">
      <path
         inkscape:connector-curvature="0"
         id="path4520"
         d="M 0,27.12499 H 63.499999"
         style="fill:none;stroke:#000000;stroke-width:0.5291667;stroke-linecap:butt;stroke-linejoin:miter;stroke-miterlimit:4;stroke-dasharray:none;stroke-opacity:1" />
      <path
         inkscape:connector-curvature="0"
         id="path4561"
         d="m 0,25.802075 v 1.322917"
         style="fill:none;stroke:#000000;stroke-width:0.5291667;stroke-linecap:butt;stroke-linejoin:miter;stroke-miterlimit:4;stroke-dasharray:none;stroke-opacity:1" />
      <path
         inkscape:connector-curvature="0"
         id="path4561-3"
         d="m 63.5,25.802075 v 1.322917"
         style="fill:none;stroke:#000000;stroke-width:0.52916664;stroke-linecap:butt;stroke-linejoin:miter;stroke-miterlimit:4;stroke-dasharray:none;stroke-opacity:1" />
      <text
         id="text4692"
         y="26.087328"
         x="-20.828983"
         style="font-style:normal;font-weight:normal;font-size:4.23333311px;line-height:1.25;font-family:sans-serif;letter-spacing:0px;word-spacing:0px;fill:#000000;fill-opacity:1;stroke:none;stroke-width:0.26458332"
         xml:space="preserve"><tspan
           style="stroke-width:0.26458332"
           y="26.087328"
           x="-20.828983"
           id="tspan4690"
           sodipodi:role="line">Linux</tspan><tspan
           id="tspan4694"
           style="stroke-width:0.26458332"
           y="31.378994"
           x="-20.828983"
           sodipodi:role="line">4.14</tspan></text>
      <g
         id="g4952">
        <path
           style="fill:none;stroke:#dc04f9;stroke-width:0.5291667;stroke-linecap:butt;stroke-linejoin:miter;stroke-miterlimit:4;stroke-dasharray:none;stroke-opacity:1"
           d="M -1.4072173e-6,27.124997 H -6.6145847"
           id="path4933"
           inkscape:connector-curvature="0" />
        <path
           style="fill:none;stroke:#dc04f9;stroke-width:0.5291667;stroke-linecap:butt;stroke-linejoin:miter;stroke-miterlimit:4;stroke-dasharray:none;stroke-opacity:1"
           d="m -6.6145844,25.802082 v 1.322917"
           id="path4933-6"
           inkscape:connector-curvature="0" />
      </g>
      <g
         id="g5066">
        <text
           xml:space="preserve"
           style="font-style:normal;font-weight:normal;font-size:3.52777767px;line-height:1.25;font-family:sans-serif;letter-spacing:0px;word-spacing:0px;fill:#000000;fill-opacity:1;stroke:none;stroke-width:0.26458332"
           x="28.19207"
           y="1.0340843"
           id="text5008"
           transform="rotate(90)"><tspan
             sodipodi:role="line"
             id="tspan5006"
             x="28.19207"
             y="1.0340843"
             style="stroke-width:0.26458332">rel</tspan></text>
        <text
           xml:space="preserve"
           style="font-style:normal;font-weight:normal;font-size:3.52777767px;line-height:1.25;font-family:sans-serif;letter-spacing:0px;word-spacing:0px;fill:#000000;fill-opacity:1;stroke:none;stroke-width:0.26458332"
           x="28.19207"
           y="7.4485531"
           id="text5008-7"
           transform="rotate(90)"><tspan
             sodipodi:role="line"
             id="tspan5006-5"
             x="28.19207"
             y="7.4485531"
             style="stroke-width:0.26458332">dev</tspan></text>
      </g>
    </g>
    <g
       id="g6452">
      <path
         inkscape:connector-curvature="0"
         id="path4520-6"
         d="M 31.75,16.541658 H 95.249998"
         style="fill:none;stroke:#000000;stroke-width:0.52916664;stroke-linecap:butt;stroke-linejoin:miter;stroke-miterlimit:4;stroke-dasharray:none;stroke-opacity:1" />
      <path
         inkscape:connector-curvature="0"
         id="path4561-7"
         d="m 95.25,15.218742 v 1.322917"
         style="fill:none;stroke:#000000;stroke-width:0.52916664;stroke-linecap:butt;stroke-linejoin:miter;stroke-miterlimit:4;stroke-dasharray:none;stroke-opacity:1" />
      <path
         inkscape:connector-curvature="0"
         id="path4561-56"
         d="m 31.75,15.218742 v 1.322917"
         style="fill:none;stroke:#000000;stroke-width:0.52916664;stroke-linecap:butt;stroke-linejoin:miter;stroke-miterlimit:4;stroke-dasharray:none;stroke-opacity:1" />
      <text
         id="text4698"
         y="15.474023"
         x="9.8385067"
         style="font-style:normal;font-weight:normal;font-size:4.23333359px;line-height:1.25;font-family:sans-serif;letter-spacing:0px;word-spacing:0px;fill:#000000;fill-opacity:1;stroke:none;stroke-width:0.26458332"
         xml:space="preserve"><tspan
           style="stroke-width:0.26458332"
           y="15.474023"
           x="9.8385067"
           id="tspan4696"
           sodipodi:role="line">Linux</tspan><tspan
           id="tspan4700"
           style="stroke-width:0.26458332"
           y="20.76569"
           x="9.8385067"
           sodipodi:role="line">4.19</tspan></text>
      <g
         id="g4952-2-7"
         transform="translate(31.750001,-10.583332)">
        <path
           style="fill:none;stroke:#dc04f9;stroke-width:0.5291667;stroke-linecap:butt;stroke-linejoin:miter;stroke-miterlimit:4;stroke-dasharray:none;stroke-opacity:1"
           d="M -1.4072173e-6,27.124997 H -6.6145847"
           id="path4933-61-9"
           inkscape:connector-curvature="0" />
        <path
           style="fill:none;stroke:#dc04f9;stroke-width:0.5291667;stroke-linecap:butt;stroke-linejoin:miter;stroke-miterlimit:4;stroke-dasharray:none;stroke-opacity:1"
           d="m -6.6145844,25.802082 v 1.322917"
           id="path4933-6-8-2"
           inkscape:connector-curvature="0" />
      </g>
      <g
         id="g5066-9"
         transform="translate(31.75,-10.394345)">
        <text
           xml:space="preserve"
           style="font-style:normal;font-weight:normal;font-size:3.52777767px;line-height:1.25;font-family:sans-serif;letter-spacing:0px;word-spacing:0px;fill:#000000;fill-opacity:1;stroke:none;stroke-width:0.26458332"
           x="28.19207"
           y="1.0340843"
           id="text5008-73"
           transform="rotate(90)"><tspan
             sodipodi:role="line"
             id="tspan5006-6"
             x="28.19207"
             y="1.0340843"
             style="stroke-width:0.26458332">rel</tspan></text>
        <text
           xml:space="preserve"
           style="font-style:normal;font-weight:normal;font-size:3.52777767px;line-height:1.25;font-family:sans-serif;letter-spacing:0px;word-spacing:0px;fill:#000000;fill-opacity:1;stroke:none;stroke-width:0.26458332"
           x="28.19207"
           y="7.4485531"
           id="text5008-7-1"
           transform="rotate(90)"><tspan
             sodipodi:role="line"
             id="tspan5006-5-2"
             x="28.19207"
             y="7.4485531"
             style="stroke-width:0.26458332">dev</tspan></text>
      </g>
    </g>
    <g
       transform="translate(63.767271,-21.138175)"
       id="g5066-9-9">
      <text
         transform="rotate(90)"
         id="text5008-73-3"
         y="1.0340843"
         x="28.19207"
         style="font-style:normal;font-weight:normal;font-size:3.52777767px;line-height:1.25;font-family:sans-serif;letter-spacing:0px;word-spacing:0px;fill:#000000;fill-opacity:1;stroke:none;stroke-width:0.26458332"
         xml:space="preserve"><tspan
           style="stroke-width:0.26458332"
           y="1.0340843"
           x="28.19207"
           id="tspan5006-6-1"
           sodipodi:role="line">rel</tspan></text>
      <text
         transform="rotate(90)"
         id="text5008-7-1-9"
         y="7.4485531"
         x="28.19207"
         style="font-style:normal;font-weight:normal;font-size:3.52777767px;line-height:1.25;font-family:sans-serif;letter-spacing:0px;word-spacing:0px;fill:#000000;fill-opacity:1;stroke:none;stroke-width:0.26458332"
         xml:space="preserve"><tspan
           style="stroke-width:0.26458332"
           y="7.4485531"
           x="28.19207"
           id="tspan5006-5-2-4"
           sodipodi:role="line">dev</tspan></text>
    </g>
    <g
       transform="translate(95.264107,-31.816201)"
       id="g5066-9-9-7">
      <text
         transform="rotate(90)"
         id="text5008-73-3-8"
         y="1.0340843"
         x="28.19207"
         style="font-style:normal;font-weight:normal;font-size:3.52777767px;line-height:1.25;font-family:sans-serif;letter-spacing:0px;word-spacing:0px;fill:#000000;fill-opacity:1;stroke:none;stroke-width:0.26458332"
         xml:space="preserve"><tspan
           style="stroke-width:0.26458332"
           y="1.0340843"
           x="28.19207"
           id="tspan5006-6-1-4"
           sodipodi:role="line">rel</tspan></text>
      <text
         transform="rotate(90)"
         id="text5008-7-1-9-5"
         y="7.4485531"
         x="28.19207"
         style="font-style:normal;font-weight:normal;font-size:3.52777767px;line-height:1.25;font-family:sans-serif;letter-spacing:0px;word-spacing:0px;fill:#000000;fill-opacity:1;stroke:none;stroke-width:0.26458332"
         xml:space="preserve"><tspan
           style="stroke-width:0.26458332"
           y="7.4485531"
           x="28.19207"
           id="tspan5006-5-2-4-0"
           sodipodi:role="line">dev</tspan></text>
    </g>
  </g>
</svg>
