<?xml version="1.0" encoding="UTF-8" standalone="no"?>
<!DOCTYPE svg PUBLIC "-//W3C//DTD SVG 1.1//EN" "http://www.w3.org/Graphics/SVG/1.1/DTD/svg11.dtd">
<svg width="2489px" height="3010px" version="1.1" xmlns="http://www.w3.org/2000/svg">

<!-- This file is a systemd-analyze SVG file. It is best rendered in a   -->
<!-- browser such as Chrome, Chromium or Firefox. Other applications     -->
<!-- that render these files properly but much slower are ImageMagick,   -->
<!-- gimp, inkscape, etc. To display the files on your system, just      -->
<!-- point your browser to this file.                                    -->

<!-- This plot was generated by systemd-analyze version 204              -->

<defs>
  <style type="text/css">
    <![CDATA[
      rect       { stroke-width: 1; stroke-opacity: 0; }
      rect.activating   { fill: rgb(255,0,0); fill-opacity: 0.7; }
      rect.active       { fill: rgb(200,150,150); fill-opacity: 0.7; }
      rect.deactivating { fill: rgb(150,100,100); fill-opacity: 0.7; }
      rect.kernel       { fill: rgb(150,150,150); fill-opacity: 0.7; }
      rect.initrd       { fill: rgb(150,150,150); fill-opacity: 0.7; }
      rect.firmware     { fill: rgb(150,150,150); fill-opacity: 0.7; }
      rect.loader       { fill: rgb(150,150,150); fill-opacity: 0.7; }
      rect.userspace    { fill: rgb(150,150,150); fill-opacity: 0.7; }
      rect.box   { fill: rgb(240,240,240); stroke: rgb(192,192,192); }
      line       { stroke: rgb(64,64,64); stroke-width: 1; }
//    line.sec1  { }
      line.sec5  { stroke-width: 2; }
      line.sec01 { stroke: rgb(224,224,224); stroke-width: 1; }
      text       { font-family: Verdana, Helvetica; font-size: 10; }
      text.left  { font-family: Verdana, Helvetica; font-size: 10; text-anchor: start; }
      text.right { font-family: Verdana, Helvetica; font-size: 10; text-anchor: end; }
      text.sec   { font-size: 8; }
    ]]>
   </style>
</defs>

<text x="20" y="50">Startup finished in 1.601s (kernel) + 2.140s (initrd) + 13.941s (userspace) = 17.682s</text><text x="20" y="30">Chaiwala Earlgrey (13Q2) chaiwala (3.8-trunk-mx6 #1 SMP PREEMPT Tue Feb 11 17:13:05 UTC 2014) armv7l</text><text x="20" y="2980">Legend: Red = Activating; Pink = Active; Dark Pink = Deactivating</text><g transform="translate(20.000,100)">
<rect class="box" x="0" y="0" width="1768.233" height="2860.000"/>
  <line class="sec5" x1="0.000" y1="0" x2="0.000" y2="2860.000"/>
  <text class="sec" x="0.000" y="-5.000">0.0s</text>
  <line class="sec01" x1="10.000" y1="0" x2="10.000" y2="2860.000"/>
  <line class="sec01" x1="20.000" y1="0" x2="20.000" y2="2860.000"/>
  <line class="sec01" x1="30.000" y1="0" x2="30.000" y2="2860.000"/>
  <line class="sec01" x1="40.000" y1="0" x2="40.000" y2="2860.000"/>
  <line class="sec01" x1="50.000" y1="0" x2="50.000" y2="2860.000"/>
  <line class="sec01" x1="60.000" y1="0" x2="60.000" y2="2860.000"/>
  <line class="sec01" x1="70.000" y1="0" x2="70.000" y2="2860.000"/>
  <line class="sec01" x1="80.000" y1="0" x2="80.000" y2="2860.000"/>
  <line class="sec01" x1="90.000" y1="0" x2="90.000" y2="2860.000"/>
  <line class="sec1" x1="100.000" y1="0" x2="100.000" y2="2860.000"/>
  <text class="sec" x="100.000" y="-5.000">1.0s</text>
  <line class="sec01" x1="110.000" y1="0" x2="110.000" y2="2860.000"/>
  <line class="sec01" x1="120.000" y1="0" x2="120.000" y2="2860.000"/>
  <line class="sec01" x1="130.000" y1="0" x2="130.000" y2="2860.000"/>
  <line class="sec01" x1="140.000" y1="0" x2="140.000" y2="2860.000"/>
  <line class="sec01" x1="150.000" y1="0" x2="150.000" y2="2860.000"/>
  <line class="sec01" x1="160.000" y1="0" x2="160.000" y2="2860.000"/>
  <line class="sec01" x1="170.000" y1="0" x2="170.000" y2="2860.000"/>
  <line class="sec01" x1="180.000" y1="0" x2="180.000" y2="2860.000"/>
  <line class="sec01" x1="190.000" y1="0" x2="190.000" y2="2860.000"/>
  <line class="sec1" x1="200.000" y1="0" x2="200.000" y2="2860.000"/>
  <text class="sec" x="200.000" y="-5.000">2.0s</text>
  <line class="sec01" x1="210.000" y1="0" x2="210.000" y2="2860.000"/>
  <line class="sec01" x1="220.000" y1="0" x2="220.000" y2="2860.000"/>
  <line class="sec01" x1="230.000" y1="0" x2="230.000" y2="2860.000"/>
  <line class="sec01" x1="240.000" y1="0" x2="240.000" y2="2860.000"/>
  <line class="sec01" x1="250.000" y1="0" x2="250.000" y2="2860.000"/>
  <line class="sec01" x1="260.000" y1="0" x2="260.000" y2="2860.000"/>
  <line class="sec01" x1="270.000" y1="0" x2="270.000" y2="2860.000"/>
  <line class="sec01" x1="280.000" y1="0" x2="280.000" y2="2860.000"/>
  <line class="sec01" x1="290.000" y1="0" x2="290.000" y2="2860.000"/>
  <line class="sec1" x1="300.000" y1="0" x2="300.000" y2="2860.000"/>
  <text class="sec" x="300.000" y="-5.000">3.0s</text>
  <line class="sec01" x1="310.000" y1="0" x2="310.000" y2="2860.000"/>
  <line class="sec01" x1="320.000" y1="0" x2="320.000" y2="2860.000"/>
  <line class="sec01" x1="330.000" y1="0" x2="330.000" y2="2860.000"/>
  <line class="sec01" x1="340.000" y1="0" x2="340.000" y2="2860.000"/>
  <line class="sec01" x1="350.000" y1="0" x2="350.000" y2="2860.000"/>
  <line class="sec01" x1="360.000" y1="0" x2="360.000" y2="2860.000"/>
  <line class="sec01" x1="370.000" y1="0" x2="370.000" y2="2860.000"/>
  <line class="sec01" x1="380.000" y1="0" x2="380.000" y2="2860.000"/>
  <line class="sec01" x1="390.000" y1="0" x2="390.000" y2="2860.000"/>
  <line class="sec1" x1="400.000" y1="0" x2="400.000" y2="2860.000"/>
  <text class="sec" x="400.000" y="-5.000">4.0s</text>
  <line class="sec01" x1="410.000" y1="0" x2="410.000" y2="2860.000"/>
  <line class="sec01" x1="420.000" y1="0" x2="420.000" y2="2860.000"/>
  <line class="sec01" x1="430.000" y1="0" x2="430.000" y2="2860.000"/>
  <line class="sec01" x1="440.000" y1="0" x2="440.000" y2="2860.000"/>
  <line class="sec01" x1="450.000" y1="0" x2="450.000" y2="2860.000"/>
  <line class="sec01" x1="460.000" y1="0" x2="460.000" y2="2860.000"/>
  <line class="sec01" x1="470.000" y1="0" x2="470.000" y2="2860.000"/>
  <line class="sec01" x1="480.000" y1="0" x2="480.000" y2="2860.000"/>
  <line class="sec01" x1="490.000" y1="0" x2="490.000" y2="2860.000"/>
  <line class="sec5" x1="500.000" y1="0" x2="500.000" y2="2860.000"/>
  <text class="sec" x="500.000" y="-5.000">5.0s</text>
  <line class="sec01" x1="510.000" y1="0" x2="510.000" y2="2860.000"/>
  <line class="sec01" x1="520.000" y1="0" x2="520.000" y2="2860.000"/>
  <line class="sec01" x1="530.000" y1="0" x2="530.000" y2="2860.000"/>
  <line class="sec01" x1="540.000" y1="0" x2="540.000" y2="2860.000"/>
  <line class="sec01" x1="550.000" y1="0" x2="550.000" y2="2860.000"/>
  <line class="sec01" x1="560.000" y1="0" x2="560.000" y2="2860.000"/>
  <line class="sec01" x1="570.000" y1="0" x2="570.000" y2="2860.000"/>
  <line class="sec01" x1="580.000" y1="0" x2="580.000" y2="2860.000"/>
  <line class="sec01" x1="590.000" y1="0" x2="590.000" y2="2860.000"/>
  <line class="sec1" x1="600.000" y1="0" x2="600.000" y2="2860.000"/>
  <text class="sec" x="600.000" y="-5.000">6.0s</text>
  <line class="sec01" x1="610.000" y1="0" x2="610.000" y2="2860.000"/>
  <line class="sec01" x1="620.000" y1="0" x2="620.000" y2="2860.000"/>
  <line class="sec01" x1="630.000" y1="0" x2="630.000" y2="2860.000"/>
  <line class="sec01" x1="640.000" y1="0" x2="640.000" y2="2860.000"/>
  <line class="sec01" x1="650.000" y1="0" x2="650.000" y2="2860.000"/>
  <line class="sec01" x1="660.000" y1="0" x2="660.000" y2="2860.000"/>
  <line class="sec01" x1="670.000" y1="0" x2="670.000" y2="2860.000"/>
  <line class="sec01" x1="680.000" y1="0" x2="680.000" y2="2860.000"/>
  <line class="sec01" x1="690.000" y1="0" x2="690.000" y2="2860.000"/>
  <line class="sec1" x1="700.000" y1="0" x2="700.000" y2="2860.000"/>
  <text class="sec" x="700.000" y="-5.000">7.0s</text>
  <line class="sec01" x1="710.000" y1="0" x2="710.000" y2="2860.000"/>
  <line class="sec01" x1="720.000" y1="0" x2="720.000" y2="2860.000"/>
  <line class="sec01" x1="730.000" y1="0" x2="730.000" y2="2860.000"/>
  <line class="sec01" x1="740.000" y1="0" x2="740.000" y2="2860.000"/>
  <line class="sec01" x1="750.000" y1="0" x2="750.000" y2="2860.000"/>
  <line class="sec01" x1="760.000" y1="0" x2="760.000" y2="2860.000"/>
  <line class="sec01" x1="770.000" y1="0" x2="770.000" y2="2860.000"/>
  <line class="sec01" x1="780.000" y1="0" x2="780.000" y2="2860.000"/>
  <line class="sec01" x1="790.000" y1="0" x2="790.000" y2="2860.000"/>
  <line class="sec1" x1="800.000" y1="0" x2="800.000" y2="2860.000"/>
  <text class="sec" x="800.000" y="-5.000">8.0s</text>
  <line class="sec01" x1="810.000" y1="0" x2="810.000" y2="2860.000"/>
  <line class="sec01" x1="820.000" y1="0" x2="820.000" y2="2860.000"/>
  <line class="sec01" x1="830.000" y1="0" x2="830.000" y2="2860.000"/>
  <line class="sec01" x1="840.000" y1="0" x2="840.000" y2="2860.000"/>
  <line class="sec01" x1="850.000" y1="0" x2="850.000" y2="2860.000"/>
  <line class="sec01" x1="860.000" y1="0" x2="860.000" y2="2860.000"/>
  <line class="sec01" x1="870.000" y1="0" x2="870.000" y2="2860.000"/>
  <line class="sec01" x1="880.000" y1="0" x2="880.000" y2="2860.000"/>
  <line class="sec01" x1="890.000" y1="0" x2="890.000" y2="2860.000"/>
  <line class="sec1" x1="900.000" y1="0" x2="900.000" y2="2860.000"/>
  <text class="sec" x="900.000" y="-5.000">9.0s</text>
  <line class="sec01" x1="910.000" y1="0" x2="910.000" y2="2860.000"/>
  <line class="sec01" x1="920.000" y1="0" x2="920.000" y2="2860.000"/>
  <line class="sec01" x1="930.000" y1="0" x2="930.000" y2="2860.000"/>
  <line class="sec01" x1="940.000" y1="0" x2="940.000" y2="2860.000"/>
  <line class="sec01" x1="950.000" y1="0" x2="950.000" y2="2860.000"/>
  <line class="sec01" x1="960.000" y1="0" x2="960.000" y2="2860.000"/>
  <line class="sec01" x1="970.000" y1="0" x2="970.000" y2="2860.000"/>
  <line class="sec01" x1="980.000" y1="0" x2="980.000" y2="2860.000"/>
  <line class="sec01" x1="990.000" y1="0" x2="990.000" y2="2860.000"/>
  <line class="sec5" x1="1000.000" y1="0" x2="1000.000" y2="2860.000"/>
  <text class="sec" x="1000.000" y="-5.000">10.0s</text>
  <line class="sec01" x1="1010.000" y1="0" x2="1010.000" y2="2860.000"/>
  <line class="sec01" x1="1020.000" y1="0" x2="1020.000" y2="2860.000"/>
  <line class="sec01" x1="1030.000" y1="0" x2="1030.000" y2="2860.000"/>
  <line class="sec01" x1="1040.000" y1="0" x2="1040.000" y2="2860.000"/>
  <line class="sec01" x1="1050.000" y1="0" x2="1050.000" y2="2860.000"/>
  <line class="sec01" x1="1060.000" y1="0" x2="1060.000" y2="2860.000"/>
  <line class="sec01" x1="1070.000" y1="0" x2="1070.000" y2="2860.000"/>
  <line class="sec01" x1="1080.000" y1="0" x2="1080.000" y2="2860.000"/>
  <line class="sec01" x1="1090.000" y1="0" x2="1090.000" y2="2860.000"/>
  <line class="sec1" x1="1100.000" y1="0" x2="1100.000" y2="2860.000"/>
  <text class="sec" x="1100.000" y="-5.000">11.0s</text>
  <line class="sec01" x1="1110.000" y1="0" x2="1110.000" y2="2860.000"/>
  <line class="sec01" x1="1120.000" y1="0" x2="1120.000" y2="2860.000"/>
  <line class="sec01" x1="1130.000" y1="0" x2="1130.000" y2="2860.000"/>
  <line class="sec01" x1="1140.000" y1="0" x2="1140.000" y2="2860.000"/>
  <line class="sec01" x1="1150.000" y1="0" x2="1150.000" y2="2860.000"/>
  <line class="sec01" x1="1160.000" y1="0" x2="1160.000" y2="2860.000"/>
  <line class="sec01" x1="1170.000" y1="0" x2="1170.000" y2="2860.000"/>
  <line class="sec01" x1="1180.000" y1="0" x2="1180.000" y2="2860.000"/>
  <line class="sec01" x1="1190.000" y1="0" x2="1190.000" y2="2860.000"/>
  <line class="sec1" x1="1200.000" y1="0" x2="1200.000" y2="2860.000"/>
  <text class="sec" x="1200.000" y="-5.000">12.0s</text>
  <line class="sec01" x1="1210.000" y1="0" x2="1210.000" y2="2860.000"/>
  <line class="sec01" x1="1220.000" y1="0" x2="1220.000" y2="2860.000"/>
  <line class="sec01" x1="1230.000" y1="0" x2="1230.000" y2="2860.000"/>
  <line class="sec01" x1="1240.000" y1="0" x2="1240.000" y2="2860.000"/>
  <line class="sec01" x1="1250.000" y1="0" x2="1250.000" y2="2860.000"/>
  <line class="sec01" x1="1260.000" y1="0" x2="1260.000" y2="2860.000"/>
  <line class="sec01" x1="1270.000" y1="0" x2="1270.000" y2="2860.000"/>
  <line class="sec01" x1="1280.000" y1="0" x2="1280.000" y2="2860.000"/>
  <line class="sec01" x1="1290.000" y1="0" x2="1290.000" y2="2860.000"/>
  <line class="sec1" x1="1300.000" y1="0" x2="1300.000" y2="2860.000"/>
  <text class="sec" x="1300.000" y="-5.000">13.0s</text>
  <line class="sec01" x1="1310.000" y1="0" x2="1310.000" y2="2860.000"/>
  <line class="sec01" x1="1320.000" y1="0" x2="1320.000" y2="2860.000"/>
  <line class="sec01" x1="1330.000" y1="0" x2="1330.000" y2="2860.000"/>
  <line class="sec01" x1="1340.000" y1="0" x2="1340.000" y2="2860.000"/>
  <line class="sec01" x1="1350.000" y1="0" x2="1350.000" y2="2860.000"/>
  <line class="sec01" x1="1360.000" y1="0" x2="1360.000" y2="2860.000"/>
  <line class="sec01" x1="1370.000" y1="0" x2="1370.000" y2="2860.000"/>
  <line class="sec01" x1="1380.000" y1="0" x2="1380.000" y2="2860.000"/>
  <line class="sec01" x1="1390.000" y1="0" x2="1390.000" y2="2860.000"/>
  <line class="sec1" x1="1400.000" y1="0" x2="1400.000" y2="2860.000"/>
  <text class="sec" x="1400.000" y="-5.000">14.0s</text>
  <line class="sec01" x1="1410.000" y1="0" x2="1410.000" y2="2860.000"/>
  <line class="sec01" x1="1420.000" y1="0" x2="1420.000" y2="2860.000"/>
  <line class="sec01" x1="1430.000" y1="0" x2="1430.000" y2="2860.000"/>
  <line class="sec01" x1="1440.000" y1="0" x2="1440.000" y2="2860.000"/>
  <line class="sec01" x1="1450.000" y1="0" x2="1450.000" y2="2860.000"/>
  <line class="sec01" x1="1460.000" y1="0" x2="1460.000" y2="2860.000"/>
  <line class="sec01" x1="1470.000" y1="0" x2="1470.000" y2="2860.000"/>
  <line class="sec01" x1="1480.000" y1="0" x2="1480.000" y2="2860.000"/>
  <line class="sec01" x1="1490.000" y1="0" x2="1490.000" y2="2860.000"/>
  <line class="sec5" x1="1500.000" y1="0" x2="1500.000" y2="2860.000"/>
  <text class="sec" x="1500.000" y="-5.000">15.0s</text>
  <line class="sec01" x1="1510.000" y1="0" x2="1510.000" y2="2860.000"/>
  <line class="sec01" x1="1520.000" y1="0" x2="1520.000" y2="2860.000"/>
  <line class="sec01" x1="1530.000" y1="0" x2="1530.000" y2="2860.000"/>
  <line class="sec01" x1="1540.000" y1="0" x2="1540.000" y2="2860.000"/>
  <line class="sec01" x1="1550.000" y1="0" x2="1550.000" y2="2860.000"/>
  <line class="sec01" x1="1560.000" y1="0" x2="1560.000" y2="2860.000"/>
  <line class="sec01" x1="1570.000" y1="0" x2="1570.000" y2="2860.000"/>
  <line class="sec01" x1="1580.000" y1="0" x2="1580.000" y2="2860.000"/>
  <line class="sec01" x1="1590.000" y1="0" x2="1590.000" y2="2860.000"/>
  <line class="sec1" x1="1600.000" y1="0" x2="1600.000" y2="2860.000"/>
  <text class="sec" x="1600.000" y="-5.000">16.0s</text>
  <line class="sec01" x1="1610.000" y1="0" x2="1610.000" y2="2860.000"/>
  <line class="sec01" x1="1620.000" y1="0" x2="1620.000" y2="2860.000"/>
  <line class="sec01" x1="1630.000" y1="0" x2="1630.000" y2="2860.000"/>
  <line class="sec01" x1="1640.000" y1="0" x2="1640.000" y2="2860.000"/>
  <line class="sec01" x1="1650.000" y1="0" x2="1650.000" y2="2860.000"/>
  <line class="sec01" x1="1660.000" y1="0" x2="1660.000" y2="2860.000"/>
  <line class="sec01" x1="1670.000" y1="0" x2="1670.000" y2="2860.000"/>
  <line class="sec01" x1="1680.000" y1="0" x2="1680.000" y2="2860.000"/>
  <line class="sec01" x1="1690.000" y1="0" x2="1690.000" y2="2860.000"/>
  <line class="sec1" x1="1700.000" y1="0" x2="1700.000" y2="2860.000"/>
  <text class="sec" x="1700.000" y="-5.000">17.0s</text>
  <line class="sec01" x1="1710.000" y1="0" x2="1710.000" y2="2860.000"/>
  <line class="sec01" x1="1720.000" y1="0" x2="1720.000" y2="2860.000"/>
  <line class="sec01" x1="1730.000" y1="0" x2="1730.000" y2="2860.000"/>
  <line class="sec01" x1="1740.000" y1="0" x2="1740.000" y2="2860.000"/>
  <line class="sec01" x1="1750.000" y1="0" x2="1750.000" y2="2860.000"/>
  <line class="sec01" x1="1760.000" y1="0" x2="1760.000" y2="2860.000"/>
  <rect class="kernel" x="0.000" y="0.000" width="160.114" height="19.000"/>
  <text class="left" x="5.000" y="14.000">kernel</text>
  <rect class="initrd" x="160.114" y="20.000" width="214.012" height="19.000"/>
  <text class="left" x="165.114" y="34.000">initrd</text>
  <rect class="userspace" x="374.126" y="40.000" width="1394.107" height="19.000"/>
  <text class="left" x="379.126" y="54.000">userspace</text>
  <rect class="activating" x="430.932" y="60.000" width="0.000" height="19.000"/>
  <rect class="active" x="430.932" y="60.000" width="1337.301" height="19.000"/>
  <rect class="deactivating" x="1768.233" y="60.000" width="0.000" height="19.000"/>
  <text class="right" x="425.932" y="74.000">-.mount</text>
  <rect class="activating" x="431.141" y="80.000" width="0.000" height="19.000"/>
  <rect class="active" x="431.141" y="80.000" width="1337.092" height="19.000"/>
  <rect class="deactivating" x="1768.233" y="80.000" width="0.000" height="19.000"/>
  <text class="right" x="426.141" y="94.000">systemd-ask-password-wall.path</text>
  <rect class="activating" x="431.197" y="100.000" width="0.000" height="19.000"/>
  <rect class="active" x="431.197" y="100.000" width="1337.036" height="19.000"/>
  <rect class="deactivating" x="1768.233" y="100.000" width="0.000" height="19.000"/>
  <text class="right" x="426.197" y="114.000">systemd-initctl.socket</text>
  <rect class="activating" x="431.245" y="120.000" width="0.000" height="19.000"/>
  <rect class="active" x="431.245" y="120.000" width="1336.989" height="19.000"/>
  <rect class="deactivating" x="1768.233" y="120.000" width="0.000" height="19.000"/>
  <text class="right" x="426.245" y="134.000">systemd-shutdownd.socket</text>
  <rect class="activating" x="431.321" y="140.000" width="0.000" height="19.000"/>
  <rect class="active" x="431.321" y="140.000" width="1336.912" height="19.000"/>
  <rect class="deactivating" x="1768.233" y="140.000" width="0.000" height="19.000"/>
  <text class="right" x="426.321" y="154.000">systemd-udevd-kernel.socket</text>
  <rect class="activating" x="431.393" y="160.000" width="0.000" height="19.000"/>
  <rect class="active" x="431.393" y="160.000" width="1336.840" height="19.000"/>
  <rect class="deactivating" x="1768.233" y="160.000" width="0.000" height="19.000"/>
  <text class="right" x="426.393" y="174.000">systemd-udevd-control.socket</text>
  <rect class="activating" x="431.511" y="180.000" width="0.000" height="19.000"/>
  <rect class="active" x="431.511" y="180.000" width="1336.722" height="19.000"/>
  <rect class="deactivating" x="1768.233" y="180.000" width="0.000" height="19.000"/>
  <text class="right" x="426.511" y="194.000">proc-sys-fs-binfmt_misc.automount</text>
  <rect class="activating" x="431.594" y="200.000" width="0.000" height="19.000"/>
  <rect class="active" x="431.594" y="200.000" width="1336.640" height="19.000"/>
  <rect class="deactivating" x="1768.233" y="200.000" width="0.000" height="19.000"/>
  <text class="right" x="426.594" y="214.000">systemd-journald.socket</text>
  <rect class="activating" x="448.069" y="220.000" width="122.978" height="19.000"/>
  <rect class="active" x="571.047" y="220.000" width="1197.187" height="19.000"/>
  <rect class="deactivating" x="1768.233" y="220.000" width="0.000" height="19.000"/>
  <text class="right" x="443.069" y="234.000">systemd-sysctl.service (1.229s)</text>
  <rect class="activating" x="464.039" y="240.000" width="107.142" height="19.000"/>
  <rect class="active" x="571.181" y="240.000" width="1197.052" height="19.000"/>
  <rect class="deactivating" x="1768.233" y="240.000" width="0.000" height="19.000"/>
  <text class="right" x="459.039" y="254.000">dev-mqueue.mount (1.071s)</text>
  <rect class="activating" x="481.289" y="260.000" width="89.993" height="19.000"/>
  <rect class="active" x="571.282" y="260.000" width="1196.951" height="19.000"/>
  <rect class="deactivating" x="1768.233" y="260.000" width="0.000" height="19.000"/>
  <text class="right" x="476.289" y="274.000">sys-kernel-debug.mount (899ms)</text>
  <rect class="activating" x="501.068" y="280.000" width="139.961" height="19.000"/>
  <rect class="active" x="641.029" y="280.000" width="1127.204" height="19.000"/>
  <rect class="deactivating" x="1768.233" y="280.000" width="0.000" height="19.000"/>
  <text class="right" x="496.068" y="294.000">systemd-udev-trigger.service (1.399s)</text>
  <rect class="activating" x="523.123" y="300.000" width="0.000" height="19.000"/>
  <rect class="active" x="523.123" y="300.000" width="1245.110" height="19.000"/>
  <rect class="deactivating" x="1768.233" y="300.000" width="0.000" height="19.000"/>
  <text class="right" x="518.123" y="314.000">systemd-journald.service</text>
  <rect class="activating" x="543.176" y="320.000" width="59.868" height="19.000"/>
  <rect class="active" x="603.044" y="320.000" width="1165.189" height="19.000"/>
  <rect class="deactivating" x="1768.233" y="320.000" width="0.000" height="19.000"/>
  <text class="right" x="538.176" y="334.000">systemd-tmpfiles-setup-dev.service (598ms)</text>
  <rect class="activating" x="543.191" y="340.000" width="0.000" height="19.000"/>
  <rect class="active" x="543.191" y="340.000" width="1225.042" height="19.000"/>
  <rect class="deactivating" x="1768.233" y="340.000" width="0.000" height="19.000"/>
  <text class="right" x="538.191" y="354.000">cryptsetup.target</text>
  <rect class="activating" x="547.050" y="360.000" width="65.979" height="19.000"/>
  <rect class="active" x="613.028" y="360.000" width="1155.205" height="19.000"/>
  <rect class="deactivating" x="1768.233" y="360.000" width="0.000" height="19.000"/>
  <text class="right" x="542.050" y="374.000">systemd-modules-load.service (659ms)</text>
  <rect class="activating" x="547.063" y="380.000" width="0.000" height="19.000"/>
  <rect class="active" x="547.063" y="380.000" width="1221.170" height="19.000"/>
  <rect class="deactivating" x="1768.233" y="380.000" width="0.000" height="19.000"/>
  <text class="right" x="542.063" y="394.000">swap.target</text>
  <rect class="activating" x="563.954" y="400.000" width="49.383" height="19.000"/>
  <rect class="active" x="613.337" y="400.000" width="0.000" height="19.000"/>
  <rect class="deactivating" x="613.337" y="400.000" width="0.000" height="19.000"/>
  <text class="right" x="558.954" y="414.000">systemd-fsck-root.service (493ms)</text>
  <rect class="activating" x="658.046" y="420.000" width="251.105" height="19.000"/>
  <rect class="active" x="909.150" y="420.000" width="0.000" height="19.000"/>
  <rect class="deactivating" x="909.150" y="420.000" width="0.000" height="19.000"/>
  <text class="right" x="653.046" y="434.000">plymouth-start.service (2.511s)</text>
  <rect class="activating" x="676.050" y="440.000" width="17.907" height="19.000"/>
  <rect class="active" x="693.957" y="440.000" width="1074.276" height="19.000"/>
  <rect class="deactivating" x="1768.233" y="440.000" width="0.000" height="19.000"/>
  <text class="right" x="671.050" y="454.000">systemd-remount-fs.service (179ms)</text>
  <rect class="activating" x="681.155" y="460.000" width="7.933" height="19.000"/>
  <rect class="active" x="689.088" y="460.000" width="1079.145" height="19.000"/>
  <rect class="deactivating" x="1768.233" y="460.000" width="0.000" height="19.000"/>
  <text class="right" x="676.155" y="474.000">systemd-udevd.service (79ms)</text>
  <rect class="activating" x="708.503" y="480.000" width="78.526" height="19.000"/>
  <rect class="active" x="787.029" y="480.000" width="0.000" height="19.000"/>
  <rect class="deactivating" x="787.029" y="480.000" width="0.000" height="19.000"/>
  <text class="right" x="703.503" y="494.000">systemd-random-seed-load.service (785ms)</text>
  <rect class="activating" x="708.520" y="500.000" width="0.000" height="19.000"/>
  <rect class="active" x="708.520" y="500.000" width="1059.713" height="19.000"/>
  <rect class="deactivating" x="1768.233" y="500.000" width="0.000" height="19.000"/>
  <text class="right" x="703.520" y="514.000">local-fs-pre.target</text>
  <rect class="activating" x="726.449" y="520.000" width="20.140" height="19.000"/>
  <rect class="active" x="746.589" y="520.000" width="1021.644" height="19.000"/>
  <rect class="deactivating" x="1768.233" y="520.000" width="0.000" height="19.000"/>
  <text class="right" x="721.449" y="534.000">run-user.mount (201ms)</text>
  <rect class="activating" x="746.438" y="540.000" width="57.896" height="19.000"/>
  <rect class="active" x="804.334" y="540.000" width="963.899" height="19.000"/>
  <rect class="deactivating" x="1768.233" y="540.000" width="0.000" height="19.000"/>
  <text class="right" x="741.438" y="554.000">run-lock.mount (578ms)</text>
  <rect class="activating" x="836.205" y="560.000" width="0.000" height="19.000"/>
  <rect class="active" x="836.205" y="560.000" width="932.029" height="19.000"/>
  <rect class="deactivating" x="1768.233" y="560.000" width="0.000" height="19.000"/>
  <text class="right" x="831.205" y="574.000">local-fs.target</text>
  <rect class="activating" x="871.049" y="580.000" width="53.207" height="19.000"/>
  <rect class="active" x="924.256" y="580.000" width="843.978" height="19.000"/>
  <rect class="deactivating" x="1768.233" y="580.000" width="0.000" height="19.000"/>
  <text class="right" x="866.049" y="594.000">auditd.service (532ms)</text>
  <rect class="activating" x="876.019" y="600.000" width="57.012" height="19.000"/>
  <rect class="active" x="933.031" y="600.000" width="835.202" height="19.000"/>
  <rect class="deactivating" x="1768.233" y="600.000" width="0.000" height="19.000"/>
  <text class="right" x="871.019" y="614.000">systemd-tmpfiles-setup.service (570ms)</text>
  <rect class="activating" x="880.097" y="620.000" width="66.933" height="19.000"/>
  <rect class="active" x="947.030" y="620.000" width="821.204" height="19.000"/>
  <rect class="deactivating" x="1768.233" y="620.000" width="0.000" height="19.000"/>
  <text class="right" x="875.097" y="634.000">apparmor.service (669ms)</text>
  <rect class="activating" x="880.122" y="640.000" width="0.000" height="19.000"/>
  <rect class="active" x="880.122" y="640.000" width="888.111" height="19.000"/>
  <rect class="deactivating" x="1768.233" y="640.000" width="0.000" height="19.000"/>
  <text class="right" x="875.122" y="654.000">remote-fs.target</text>
  <rect class="activating" x="884.514" y="660.000" width="296.866" height="19.000"/>
  <rect class="active" x="1181.381" y="660.000" width="0.000" height="19.000"/>
  <rect class="deactivating" x="1181.381" y="660.000" width="0.000" height="19.000"/>
  <text class="right" x="879.514" y="674.000">systemd-journal-flush.service (2.968s)</text>
  <rect class="activating" x="894.119" y="680.000" width="53.258" height="19.000"/>
  <rect class="active" x="947.377" y="680.000" width="0.000" height="19.000"/>
  <rect class="deactivating" x="947.377" y="680.000" width="0.000" height="19.000"/>
  <text class="right" x="889.119" y="694.000">plymouth-read-write.service (532ms)</text>
  <rect class="activating" x="894.480" y="700.000" width="0.000" height="19.000"/>
  <rect class="active" x="894.480" y="700.000" width="873.753" height="19.000"/>
  <rect class="deactivating" x="1768.233" y="700.000" width="0.000" height="19.000"/>
  <text class="right" x="889.480" y="714.000">sys-subsystem-net-devices-ifb1.device</text>
  <rect class="activating" x="894.482" y="720.000" width="0.000" height="19.000"/>
  <rect class="active" x="894.482" y="720.000" width="873.752" height="19.000"/>
  <rect class="deactivating" x="1768.233" y="720.000" width="0.000" height="19.000"/>
  <text class="right" x="889.482" y="734.000">sys-devices-virtual-net-ifb1.device</text>
  <rect class="activating" x="961.125" y="740.000" width="0.000" height="19.000"/>
  <rect class="active" x="961.125" y="740.000" width="807.109" height="19.000"/>
  <rect class="deactivating" x="1768.233" y="740.000" width="0.000" height="19.000"/>
  <text class="right" x="956.125" y="754.000">sysinit.target</text>
  <rect class="activating" x="961.181" y="760.000" width="0.000" height="19.000"/>
  <rect class="active" x="961.181" y="760.000" width="807.052" height="19.000"/>
  <rect class="deactivating" x="1768.233" y="760.000" width="0.000" height="19.000"/>
  <text class="right" x="956.181" y="774.000">systemd-tmpfiles-clean.timer</text>
  <rect class="activating" x="961.195" y="780.000" width="0.000" height="19.000"/>
  <rect class="active" x="961.195" y="780.000" width="807.038" height="19.000"/>
  <rect class="deactivating" x="1768.233" y="780.000" width="0.000" height="19.000"/>
  <text class="right" x="956.195" y="794.000">timers.target</text>
  <rect class="activating" x="961.267" y="800.000" width="0.000" height="19.000"/>
  <rect class="active" x="961.267" y="800.000" width="806.966" height="19.000"/>
  <rect class="deactivating" x="1768.233" y="800.000" width="0.000" height="19.000"/>
  <text class="right" x="956.267" y="814.000">avahi-daemon.socket</text>
  <rect class="activating" x="961.335" y="820.000" width="0.000" height="19.000"/>
  <rect class="active" x="961.335" y="820.000" width="806.898" height="19.000"/>
  <rect class="deactivating" x="1768.233" y="820.000" width="0.000" height="19.000"/>
  <text class="right" x="956.335" y="834.000">dbus.socket</text>
  <rect class="activating" x="961.382" y="840.000" width="0.000" height="19.000"/>
  <rect class="active" x="961.382" y="840.000" width="806.851" height="19.000"/>
  <rect class="deactivating" x="1768.233" y="840.000" width="0.000" height="19.000"/>
  <text class="right" x="956.382" y="854.000">sockets.target</text>
  <rect class="activating" x="961.440" y="860.000" width="0.000" height="19.000"/>
  <rect class="active" x="961.440" y="860.000" width="806.793" height="19.000"/>
  <rect class="deactivating" x="1768.233" y="860.000" width="0.000" height="19.000"/>
  <text class="right" x="956.440" y="874.000">paths.target</text>
  <rect class="activating" x="961.582" y="880.000" width="0.000" height="19.000"/>
  <rect class="active" x="961.582" y="880.000" width="806.652" height="19.000"/>
  <rect class="deactivating" x="1768.233" y="880.000" width="0.000" height="19.000"/>
  <text class="right" x="956.582" y="894.000">systemd-ask-password-plymouth.path</text>
  <rect class="activating" x="961.609" y="900.000" width="0.000" height="19.000"/>
  <rect class="active" x="961.609" y="900.000" width="806.624" height="19.000"/>
  <rect class="deactivating" x="1768.233" y="900.000" width="0.000" height="19.000"/>
  <text class="right" x="956.609" y="914.000">basic.target</text>
  <rect class="activating" x="982.083" y="920.000" width="148.056" height="19.000"/>
  <rect class="active" x="1130.139" y="920.000" width="638.095" height="19.000"/>
  <rect class="deactivating" x="1768.233" y="920.000" width="0.000" height="19.000"/>
  <text class="right" x="977.083" y="934.000">avahi-daemon.service (1.480s)</text>
  <rect class="activating" x="1002.146" y="940.000" width="112.467" height="19.000"/>
  <rect class="active" x="1114.614" y="940.000" width="653.620" height="19.000"/>
  <rect class="deactivating" x="1768.233" y="940.000" width="0.000" height="19.000"/>
  <text class="right" x="997.146" y="954.000">bootlogs.service (1.124s)</text>
  <rect class="activating" x="1009.107" y="960.000" width="121.128" height="19.000"/>
  <rect class="active" x="1130.235" y="960.000" width="637.999" height="19.000"/>
  <rect class="deactivating" x="1768.233" y="960.000" width="0.000" height="19.000"/>
  <text class="right" x="1004.107" y="974.000">connman.service (1.211s)</text>
  <rect class="activating" x="1017.027" y="980.000" width="111.004" height="19.000"/>
  <rect class="active" x="1128.031" y="980.000" width="640.202" height="19.000"/>
  <rect class="deactivating" x="1768.233" y="980.000" width="0.000" height="19.000"/>
  <text class="right" x="1012.027" y="994.000">motd.service (1.110s)</text>
  <rect class="activating" x="1024.248" y="1000.000" width="0.000" height="19.000"/>
  <rect class="active" x="1024.248" y="1000.000" width="743.985" height="19.000"/>
  <rect class="deactivating" x="1768.233" y="1000.000" width="0.000" height="19.000"/>
  <text class="right" x="1019.248" y="1014.000">dbus.service</text>
  <rect class="activating" x="1030.683" y="1020.000" width="97.554" height="19.000"/>
  <rect class="active" x="1128.237" y="1020.000" width="639.996" height="19.000"/>
  <rect class="deactivating" x="1768.233" y="1020.000" width="0.000" height="19.000"/>
  <text class="right" x="1025.683" y="1034.000">ssh.service (975ms)</text>
  <rect class="activating" x="1036.082" y="1040.000" width="93.954" height="19.000"/>
  <rect class="active" x="1130.035" y="1040.000" width="638.198" height="19.000"/>
  <rect class="deactivating" x="1768.233" y="1040.000" width="0.000" height="19.000"/>
  <text class="right" x="1031.082" y="1054.000">connman-vpn.service (939ms)</text>
  <rect class="activating" x="1055.359" y="1060.000" width="74.970" height="19.000"/>
  <rect class="active" x="1130.329" y="1060.000" width="637.905" height="19.000"/>
  <rect class="deactivating" x="1768.233" y="1060.000" width="0.000" height="19.000"/>
  <text class="right" x="1050.359" y="1074.000">ofono.service (749ms)</text>
  <rect class="activating" x="1081.291" y="1080.000" width="48.626" height="19.000"/>
  <rect class="active" x="1129.917" y="1080.000" width="638.316" height="19.000"/>
  <rect class="deactivating" x="1768.233" y="1080.000" width="0.000" height="19.000"/>
  <text class="right" x="1076.291" y="1094.000">systemd-logind.service (486ms)</text>
  <rect class="activating" x="1098.062" y="1100.000" width="16.677" height="19.000"/>
  <rect class="active" x="1114.738" y="1100.000" width="653.495" height="19.000"/>
  <rect class="deactivating" x="1768.233" y="1100.000" width="0.000" height="19.000"/>
  <text class="right" x="1093.062" y="1114.000">chaiwala-rollbackd.service (166ms)</text>
  <rect class="activating" x="1098.436" y="1120.000" width="0.000" height="19.000"/>
  <rect class="active" x="1098.436" y="1120.000" width="669.797" height="19.000"/>
  <rect class="deactivating" x="1768.233" y="1120.000" width="0.000" height="19.000"/>
  <text class="right" x="1093.436" y="1134.000">sys-subsystem-net-devices-ifb0.device</text>
  <rect class="activating" x="1098.438" y="1140.000" width="0.000" height="19.000"/>
  <rect class="active" x="1098.438" y="1140.000" width="669.796" height="19.000"/>
  <rect class="deactivating" x="1768.233" y="1140.000" width="0.000" height="19.000"/>
  <text class="right" x="1093.438" y="1154.000">sys-devices-virtual-net-ifb0.device</text>
  <rect class="activating" x="1128.613" y="1160.000" width="0.000" height="19.000"/>
  <rect class="active" x="1128.613" y="1160.000" width="639.620" height="19.000"/>
  <rect class="deactivating" x="1768.233" y="1160.000" width="0.000" height="19.000"/>
  <text class="right" x="1123.613" y="1174.000">dev-ttymxc0.device</text>
  <rect class="activating" x="1128.614" y="1180.000" width="0.000" height="19.000"/>
  <rect class="active" x="1128.614" y="1180.000" width="639.619" height="19.000"/>
  <rect class="deactivating" x="1768.233" y="1180.000" width="0.000" height="19.000"/>
  <text class="right" x="1123.614" y="1194.000">sys-devices-soc.0-2000000.aips\x2dbus-2000000.spba\x2dbus-2020000.serial-tty-ttymxc0.device</text>
  <rect class="activating" x="1128.939" y="1200.000" width="0.000" height="19.000"/>
  <rect class="active" x="1128.939" y="1200.000" width="639.295" height="19.000"/>
  <rect class="deactivating" x="1768.233" y="1200.000" width="0.000" height="19.000"/>
  <text class="right" x="1123.939" y="1214.000">dev-mtdblock0.device</text>
  <rect class="activating" x="1128.940" y="1220.000" width="0.000" height="19.000"/>
  <rect class="active" x="1128.940" y="1220.000" width="639.293" height="19.000"/>
  <rect class="deactivating" x="1768.233" y="1220.000" width="0.000" height="19.000"/>
  <text class="right" x="1123.940" y="1234.000">sys-devices-soc.0-2000000.aips\x2dbus-2000000.spba\x2dbus-2008000.ecspi-spi_master-spi32766-spi32766.0-mtd-mtd0-mtdblock0.device</text>
  <rect class="activating" x="1129.401" y="1240.000" width="0.000" height="19.000"/>
  <rect class="active" x="1129.401" y="1240.000" width="638.832" height="19.000"/>
  <rect class="deactivating" x="1768.233" y="1240.000" width="0.000" height="19.000"/>
  <text class="right" x="1124.401" y="1254.000">sys-subsystem-net-devices-eth0.device</text>
  <rect class="activating" x="1129.402" y="1260.000" width="0.000" height="19.000"/>
  <rect class="active" x="1129.402" y="1260.000" width="638.831" height="19.000"/>
  <rect class="deactivating" x="1768.233" y="1260.000" width="0.000" height="19.000"/>
  <text class="right" x="1124.402" y="1274.000">sys-devices-soc.0-2100000.aips\x2dbus-2188000.ethernet-net-eth0.device</text>
  <rect class="activating" x="1129.812" y="1280.000" width="0.000" height="19.000"/>
  <rect class="active" x="1129.812" y="1280.000" width="638.421" height="19.000"/>
  <rect class="deactivating" x="1768.233" y="1280.000" width="0.000" height="19.000"/>
  <text class="right" x="1124.812" y="1294.000">dev-ttymxc1.device</text>
  <rect class="activating" x="1129.856" y="1300.000" width="0.000" height="19.000"/>
  <rect class="active" x="1129.856" y="1300.000" width="638.377" height="19.000"/>
  <rect class="deactivating" x="1768.233" y="1300.000" width="0.000" height="19.000"/>
  <text class="right" x="1124.856" y="1314.000">sys-devices-soc.0-2100000.aips\x2dbus-21e8000.serial-tty-ttymxc1.device</text>
  <rect class="activating" x="1149.515" y="1320.000" width="0.000" height="19.000"/>
  <rect class="active" x="1149.515" y="1320.000" width="618.719" height="19.000"/>
  <rect class="deactivating" x="1768.233" y="1320.000" width="0.000" height="19.000"/>
  <text class="right" x="1144.515" y="1334.000">dev-disk-by\x2dpath-platform\x2d2198000.usdhc.device</text>
  <rect class="activating" x="1149.517" y="1340.000" width="0.000" height="19.000"/>
  <rect class="active" x="1149.517" y="1340.000" width="618.717" height="19.000"/>
  <rect class="deactivating" x="1768.233" y="1340.000" width="0.000" height="19.000"/>
  <text class="right" x="1144.517" y="1354.000">dev-disk-by\x2did-memstick\x2dSU32G_0x2297b68a.device</text>
  <rect class="activating" x="1149.518" y="1360.000" width="0.000" height="19.000"/>
  <rect class="active" x="1149.518" y="1360.000" width="618.716" height="19.000"/>
  <rect class="deactivating" x="1768.233" y="1360.000" width="0.000" height="19.000"/>
  <text class="right" x="1144.518" y="1374.000">dev-mmcblk0.device</text>
  <rect class="activating" x="1149.518" y="1380.000" width="0.000" height="19.000"/>
  <rect class="active" x="1149.518" y="1380.000" width="618.715" height="19.000"/>
  <rect class="deactivating" x="1768.233" y="1380.000" width="0.000" height="19.000"/>
  <text class="right" x="1144.518" y="1394.000">sys-devices-soc.0-2100000.aips\x2dbus-2198000.usdhc-mmc_host-mmc0-mmc0:aaaa-block-mmcblk0.device</text>
  <rect class="activating" x="1154.951" y="1400.000" width="0.000" height="19.000"/>
  <rect class="active" x="1154.951" y="1400.000" width="613.282" height="19.000"/>
  <rect class="deactivating" x="1768.233" y="1400.000" width="0.000" height="19.000"/>
  <text class="right" x="1149.951" y="1414.000">dev-disk-by\x2duuid-d5191254\x2df926\x2d4b4d\x2d88c0\x2d208cf17569c1.device</text>
  <rect class="activating" x="1154.953" y="1420.000" width="0.000" height="19.000"/>
  <rect class="active" x="1154.953" y="1420.000" width="613.280" height="19.000"/>
  <rect class="deactivating" x="1768.233" y="1420.000" width="0.000" height="19.000"/>
  <text class="right" x="1149.953" y="1434.000">dev-disk-by\x2dpath-platform\x2d2198000.usdhc\x2dpart2.device</text>
  <rect class="activating" x="1154.954" y="1440.000" width="0.000" height="19.000"/>
  <rect class="active" x="1154.954" y="1440.000" width="613.279" height="19.000"/>
  <rect class="deactivating" x="1768.233" y="1440.000" width="0.000" height="19.000"/>
  <text class="right" x="1149.954" y="1454.000">dev-disk-by\x2dpartuuid-5e44dd3d\x2de0e1\x2d402b\x2d9e8e\x2df8cd71310d9f.device</text>
  <rect class="activating" x="1154.955" y="1460.000" width="0.000" height="19.000"/>
  <rect class="active" x="1154.955" y="1460.000" width="613.278" height="19.000"/>
  <rect class="deactivating" x="1768.233" y="1460.000" width="0.000" height="19.000"/>
  <text class="right" x="1149.955" y="1474.000">dev-disk-by\x2dpartlabel-rootfs.device</text>
  <rect class="activating" x="1154.956" y="1480.000" width="0.000" height="19.000"/>
  <rect class="active" x="1154.956" y="1480.000" width="613.278" height="19.000"/>
  <rect class="deactivating" x="1768.233" y="1480.000" width="0.000" height="19.000"/>
  <text class="right" x="1149.956" y="1494.000">dev-disk-by\x2dlabel-rootfs.device</text>
  <rect class="activating" x="1154.957" y="1500.000" width="0.000" height="19.000"/>
  <rect class="active" x="1154.957" y="1500.000" width="613.277" height="19.000"/>
  <rect class="deactivating" x="1768.233" y="1500.000" width="0.000" height="19.000"/>
  <text class="right" x="1149.957" y="1514.000">dev-disk-by\x2did-memstick\x2dSU32G_0x2297b68a\x2dpart2.device</text>
  <rect class="activating" x="1154.957" y="1520.000" width="0.000" height="19.000"/>
  <rect class="active" x="1154.957" y="1520.000" width="613.276" height="19.000"/>
  <rect class="deactivating" x="1768.233" y="1520.000" width="0.000" height="19.000"/>
  <text class="right" x="1149.957" y="1534.000">dev-mmcblk0p2.device</text>
  <rect class="activating" x="1154.958" y="1540.000" width="0.000" height="19.000"/>
  <rect class="active" x="1154.958" y="1540.000" width="613.275" height="19.000"/>
  <rect class="deactivating" x="1768.233" y="1540.000" width="0.000" height="19.000"/>
  <text class="right" x="1149.958" y="1554.000">sys-devices-soc.0-2100000.aips\x2dbus-2198000.usdhc-mmc_host-mmc0-mmc0:aaaa-block-mmcblk0-mmcblk0p2.device</text>
  <rect class="activating" x="1156.035" y="1560.000" width="0.000" height="19.000"/>
  <rect class="active" x="1156.035" y="1560.000" width="612.198" height="19.000"/>
  <rect class="deactivating" x="1768.233" y="1560.000" width="0.000" height="19.000"/>
  <text class="right" x="1151.035" y="1574.000">dev-disk-by\x2duuid-FC3A\x2dBAB0.device</text>
  <rect class="activating" x="1156.037" y="1580.000" width="0.000" height="19.000"/>
  <rect class="active" x="1156.037" y="1580.000" width="612.196" height="19.000"/>
  <rect class="deactivating" x="1768.233" y="1580.000" width="0.000" height="19.000"/>
  <text class="right" x="1151.037" y="1594.000">dev-disk-by\x2dpath-platform\x2d2198000.usdhc\x2dpart5.device</text>
  <rect class="activating" x="1156.038" y="1600.000" width="0.000" height="19.000"/>
  <rect class="active" x="1156.038" y="1600.000" width="612.196" height="19.000"/>
  <rect class="deactivating" x="1768.233" y="1600.000" width="0.000" height="19.000"/>
  <text class="right" x="1151.038" y="1614.000">dev-disk-by\x2dpartuuid-62c3568c\x2da571\x2d49e5\x2d9dd0\x2d5bb44b19e198.device</text>
  <rect class="activating" x="1156.039" y="1620.000" width="0.000" height="19.000"/>
  <rect class="active" x="1156.039" y="1620.000" width="612.195" height="19.000"/>
  <rect class="deactivating" x="1768.233" y="1620.000" width="0.000" height="19.000"/>
  <text class="right" x="1151.039" y="1634.000">dev-disk-by\x2dpartlabel-boot_2.device</text>
  <rect class="activating" x="1156.039" y="1640.000" width="0.000" height="19.000"/>
  <rect class="active" x="1156.039" y="1640.000" width="612.194" height="19.000"/>
  <rect class="deactivating" x="1768.233" y="1640.000" width="0.000" height="19.000"/>
  <text class="right" x="1151.039" y="1654.000">dev-disk-by\x2dlabel-boot_2.device</text>
  <rect class="activating" x="1156.040" y="1660.000" width="0.000" height="19.000"/>
  <rect class="active" x="1156.040" y="1660.000" width="612.193" height="19.000"/>
  <rect class="deactivating" x="1768.233" y="1660.000" width="0.000" height="19.000"/>
  <text class="right" x="1151.040" y="1674.000">dev-disk-by\x2did-memstick\x2dSU32G_0x2297b68a\x2dpart5.device</text>
  <rect class="activating" x="1156.041" y="1680.000" width="0.000" height="19.000"/>
  <rect class="active" x="1156.041" y="1680.000" width="612.192" height="19.000"/>
  <rect class="deactivating" x="1768.233" y="1680.000" width="0.000" height="19.000"/>
  <text class="right" x="1151.041" y="1694.000">dev-mmcblk0p5.device</text>
  <rect class="activating" x="1156.042" y="1700.000" width="0.000" height="19.000"/>
  <rect class="active" x="1156.042" y="1700.000" width="612.192" height="19.000"/>
  <rect class="deactivating" x="1768.233" y="1700.000" width="0.000" height="19.000"/>
  <text class="right" x="1151.042" y="1714.000">sys-devices-soc.0-2100000.aips\x2dbus-2198000.usdhc-mmc_host-mmc0-mmc0:aaaa-block-mmcblk0-mmcblk0p5.device</text>
  <rect class="activating" x="1156.917" y="1720.000" width="0.000" height="19.000"/>
  <rect class="active" x="1156.917" y="1720.000" width="611.316" height="19.000"/>
  <rect class="deactivating" x="1768.233" y="1720.000" width="0.000" height="19.000"/>
  <text class="right" x="1151.917" y="1734.000">dev-disk-by\x2dpath-platform\x2d2198000.usdhc\x2dpart7.device</text>
  <rect class="activating" x="1156.919" y="1740.000" width="0.000" height="19.000"/>
  <rect class="active" x="1156.919" y="1740.000" width="611.314" height="19.000"/>
  <rect class="deactivating" x="1768.233" y="1740.000" width="0.000" height="19.000"/>
  <text class="right" x="1151.919" y="1754.000">dev-disk-by\x2dpartuuid-69131c3f\x2d7d6a\x2d457b\x2db1fc\x2d9ea7811cc77f.device</text>
  <rect class="activating" x="1156.920" y="1760.000" width="0.000" height="19.000"/>
  <rect class="active" x="1156.920" y="1760.000" width="611.313" height="19.000"/>
  <rect class="deactivating" x="1768.233" y="1760.000" width="0.000" height="19.000"/>
  <text class="right" x="1151.920" y="1774.000">dev-disk-by\x2dpartlabel-general_storage.device</text>
  <rect class="activating" x="1156.921" y="1780.000" width="0.000" height="19.000"/>
  <rect class="active" x="1156.921" y="1780.000" width="611.312" height="19.000"/>
  <rect class="deactivating" x="1768.233" y="1780.000" width="0.000" height="19.000"/>
  <text class="right" x="1151.921" y="1794.000">dev-disk-by\x2did-memstick\x2dSU32G_0x2297b68a\x2dpart7.device</text>
  <rect class="activating" x="1156.922" y="1800.000" width="0.000" height="19.000"/>
  <rect class="active" x="1156.922" y="1800.000" width="611.312" height="19.000"/>
  <rect class="deactivating" x="1768.233" y="1800.000" width="0.000" height="19.000"/>
  <text class="right" x="1151.922" y="1814.000">dev-mmcblk0p7.device</text>
  <rect class="activating" x="1156.923" y="1820.000" width="0.000" height="19.000"/>
  <rect class="active" x="1156.923" y="1820.000" width="611.311" height="19.000"/>
  <rect class="deactivating" x="1768.233" y="1820.000" width="0.000" height="19.000"/>
  <text class="right" x="1151.923" y="1834.000">sys-devices-soc.0-2100000.aips\x2dbus-2198000.usdhc-mmc_host-mmc0-mmc0:aaaa-block-mmcblk0-mmcblk0p7.device</text>
  <rect class="activating" x="1158.040" y="1840.000" width="0.000" height="19.000"/>
  <rect class="active" x="1158.040" y="1840.000" width="610.193" height="19.000"/>
  <rect class="deactivating" x="1768.233" y="1840.000" width="0.000" height="19.000"/>
  <text class="right" x="1153.040" y="1854.000">dev-disk-by\x2dpath-platform\x2d2198000.usdhc\x2dpart3.device</text>
  <rect class="activating" x="1158.042" y="1860.000" width="0.000" height="19.000"/>
  <rect class="active" x="1158.042" y="1860.000" width="610.192" height="19.000"/>
  <rect class="deactivating" x="1768.233" y="1860.000" width="0.000" height="19.000"/>
  <text class="right" x="1153.042" y="1874.000">dev-disk-by\x2dpartuuid-3446d5c3\x2dc5ff\x2d425f\x2db281\x2dc6f9843e8a28.device</text>
  <rect class="activating" x="1158.043" y="1880.000" width="0.000" height="19.000"/>
  <rect class="active" x="1158.043" y="1880.000" width="610.191" height="19.000"/>
  <rect class="deactivating" x="1768.233" y="1880.000" width="0.000" height="19.000"/>
  <text class="right" x="1153.043" y="1894.000">dev-disk-by\x2dpartlabel-flags.device</text>
  <rect class="activating" x="1158.044" y="1900.000" width="0.000" height="19.000"/>
  <rect class="active" x="1158.044" y="1900.000" width="610.190" height="19.000"/>
  <rect class="deactivating" x="1768.233" y="1900.000" width="0.000" height="19.000"/>
  <text class="right" x="1153.044" y="1914.000">dev-disk-by\x2did-memstick\x2dSU32G_0x2297b68a\x2dpart3.device</text>
  <rect class="activating" x="1158.044" y="1920.000" width="0.000" height="19.000"/>
  <rect class="active" x="1158.044" y="1920.000" width="610.189" height="19.000"/>
  <rect class="deactivating" x="1768.233" y="1920.000" width="0.000" height="19.000"/>
  <text class="right" x="1153.044" y="1934.000">dev-mmcblk0p3.device</text>
  <rect class="activating" x="1158.045" y="1940.000" width="0.000" height="19.000"/>
  <rect class="active" x="1158.045" y="1940.000" width="610.188" height="19.000"/>
  <rect class="deactivating" x="1768.233" y="1940.000" width="0.000" height="19.000"/>
  <text class="right" x="1153.045" y="1954.000">sys-devices-soc.0-2100000.aips\x2dbus-2198000.usdhc-mmc_host-mmc0-mmc0:aaaa-block-mmcblk0-mmcblk0p3.device</text>
  <rect class="activating" x="1159.153" y="1960.000" width="0.000" height="19.000"/>
  <rect class="active" x="1159.153" y="1960.000" width="609.081" height="19.000"/>
  <rect class="deactivating" x="1768.233" y="1960.000" width="0.000" height="19.000"/>
  <text class="right" x="1154.153" y="1974.000">dev-disk-by\x2duuid-FC3A\x2d8E11.device</text>
  <rect class="activating" x="1159.154" y="1980.000" width="0.000" height="19.000"/>
  <rect class="active" x="1159.154" y="1980.000" width="609.079" height="19.000"/>
  <rect class="deactivating" x="1768.233" y="1980.000" width="0.000" height="19.000"/>
  <text class="right" x="1154.154" y="1994.000">dev-disk-by\x2dpath-platform\x2d2198000.usdhc\x2dpart4.device</text>
  <rect class="activating" x="1159.155" y="2000.000" width="0.000" height="19.000"/>
  <rect class="active" x="1159.155" y="2000.000" width="609.078" height="19.000"/>
  <rect class="deactivating" x="1768.233" y="2000.000" width="0.000" height="19.000"/>
  <text class="right" x="1154.155" y="2014.000">dev-disk-by\x2dpartuuid-c5730e63\x2d4954\x2d439d\x2d9185\x2d0590a451e48f.device</text>
  <rect class="activating" x="1159.156" y="2020.000" width="0.000" height="19.000"/>
  <rect class="active" x="1159.156" y="2020.000" width="609.077" height="19.000"/>
  <rect class="deactivating" x="1768.233" y="2020.000" width="0.000" height="19.000"/>
  <text class="right" x="1154.156" y="2034.000">dev-disk-by\x2dpartlabel-boot_1.device</text>
  <rect class="activating" x="1159.157" y="2040.000" width="0.000" height="19.000"/>
  <rect class="active" x="1159.157" y="2040.000" width="609.076" height="19.000"/>
  <rect class="deactivating" x="1768.233" y="2040.000" width="0.000" height="19.000"/>
  <text class="right" x="1154.157" y="2054.000">dev-disk-by\x2dlabel-boot_1.device</text>
  <rect class="activating" x="1159.158" y="2060.000" width="0.000" height="19.000"/>
  <rect class="active" x="1159.158" y="2060.000" width="609.076" height="19.000"/>
  <rect class="deactivating" x="1768.233" y="2060.000" width="0.000" height="19.000"/>
  <text class="right" x="1154.158" y="2074.000">dev-disk-by\x2did-memstick\x2dSU32G_0x2297b68a\x2dpart4.device</text>
  <rect class="activating" x="1159.158" y="2080.000" width="0.000" height="19.000"/>
  <rect class="active" x="1159.158" y="2080.000" width="609.075" height="19.000"/>
  <rect class="deactivating" x="1768.233" y="2080.000" width="0.000" height="19.000"/>
  <text class="right" x="1154.158" y="2094.000">dev-mmcblk0p4.device</text>
  <rect class="activating" x="1159.159" y="2100.000" width="0.000" height="19.000"/>
  <rect class="active" x="1159.159" y="2100.000" width="609.074" height="19.000"/>
  <rect class="deactivating" x="1768.233" y="2100.000" width="0.000" height="19.000"/>
  <text class="right" x="1154.159" y="2114.000">sys-devices-soc.0-2100000.aips\x2dbus-2198000.usdhc-mmc_host-mmc0-mmc0:aaaa-block-mmcblk0-mmcblk0p4.device</text>
  <rect class="activating" x="1160.346" y="2120.000" width="0.000" height="19.000"/>
  <rect class="active" x="1160.346" y="2120.000" width="607.888" height="19.000"/>
  <rect class="deactivating" x="1768.233" y="2120.000" width="0.000" height="19.000"/>
  <text class="right" x="1155.346" y="2134.000">dev-disk-by\x2dpath-platform\x2d2198000.usdhc\x2dpart8.device</text>
  <rect class="activating" x="1160.347" y="2140.000" width="0.000" height="19.000"/>
  <rect class="active" x="1160.347" y="2140.000" width="607.886" height="19.000"/>
  <rect class="deactivating" x="1768.233" y="2140.000" width="0.000" height="19.000"/>
  <text class="right" x="1155.347" y="2154.000">dev-disk-by\x2dpartuuid-2714be29\x2dbddc\x2d49dd\x2d9d08\x2d606bd41d7d0a.device</text>
  <rect class="activating" x="1160.348" y="2160.000" width="0.000" height="19.000"/>
  <rect class="active" x="1160.348" y="2160.000" width="607.885" height="19.000"/>
  <rect class="deactivating" x="1768.233" y="2160.000" width="0.000" height="19.000"/>
  <text class="right" x="1155.348" y="2174.000">dev-disk-by\x2dpartlabel-flags_backup.device</text>
  <rect class="activating" x="1160.349" y="2180.000" width="0.000" height="19.000"/>
  <rect class="active" x="1160.349" y="2180.000" width="607.885" height="19.000"/>
  <rect class="deactivating" x="1768.233" y="2180.000" width="0.000" height="19.000"/>
  <text class="right" x="1155.349" y="2194.000">dev-disk-by\x2did-memstick\x2dSU32G_0x2297b68a\x2dpart8.device</text>
  <rect class="activating" x="1160.350" y="2200.000" width="0.000" height="19.000"/>
  <rect class="active" x="1160.350" y="2200.000" width="607.884" height="19.000"/>
  <rect class="deactivating" x="1768.233" y="2200.000" width="0.000" height="19.000"/>
  <text class="right" x="1155.350" y="2214.000">dev-mmcblk0p8.device</text>
  <rect class="activating" x="1160.350" y="2220.000" width="0.000" height="19.000"/>
  <rect class="active" x="1160.350" y="2220.000" width="607.883" height="19.000"/>
  <rect class="deactivating" x="1768.233" y="2220.000" width="0.000" height="19.000"/>
  <text class="right" x="1155.350" y="2234.000">sys-devices-soc.0-2100000.aips\x2dbus-2198000.usdhc-mmc_host-mmc0-mmc0:aaaa-block-mmcblk0-mmcblk0p8.device</text>
  <rect class="activating" x="1160.772" y="2240.000" width="0.000" height="19.000"/>
  <rect class="active" x="1160.772" y="2240.000" width="607.461" height="19.000"/>
  <rect class="deactivating" x="1768.233" y="2240.000" width="0.000" height="19.000"/>
  <text class="right" x="1155.772" y="2254.000">sys-subsystem-net-devices-sit0.device</text>
  <rect class="activating" x="1160.774" y="2260.000" width="0.000" height="19.000"/>
  <rect class="active" x="1160.774" y="2260.000" width="607.460" height="19.000"/>
  <rect class="deactivating" x="1768.233" y="2260.000" width="0.000" height="19.000"/>
  <text class="right" x="1155.774" y="2274.000">sys-devices-virtual-net-sit0.device</text>
  <rect class="activating" x="1172.927" y="2280.000" width="0.000" height="19.000"/>
  <rect class="active" x="1172.927" y="2280.000" width="595.306" height="19.000"/>
  <rect class="deactivating" x="1768.233" y="2280.000" width="0.000" height="19.000"/>
  <text class="right" x="1167.927" y="2294.000">dev-disk-by\x2duuid-d7db76ef\x2db50f\x2d43dd\x2db0bb\x2d3b6eb943e2a7.device</text>
  <rect class="activating" x="1172.929" y="2300.000" width="0.000" height="19.000"/>
  <rect class="active" x="1172.929" y="2300.000" width="595.305" height="19.000"/>
  <rect class="deactivating" x="1768.233" y="2300.000" width="0.000" height="19.000"/>
  <text class="right" x="1167.929" y="2314.000">dev-disk-by\x2dpath-platform\x2d2198000.usdhc\x2dpart6.device</text>
  <rect class="activating" x="1172.929" y="2320.000" width="0.000" height="19.000"/>
  <rect class="active" x="1172.929" y="2320.000" width="595.304" height="19.000"/>
  <rect class="deactivating" x="1768.233" y="2320.000" width="0.000" height="19.000"/>
  <text class="right" x="1167.929" y="2334.000">dev-disk-by\x2dpartuuid-c0890ebe\x2db80d\x2d44a5\x2d89af\x2dfa32254fecf7.device</text>
  <rect class="activating" x="1172.930" y="2340.000" width="0.000" height="19.000"/>
  <rect class="active" x="1172.930" y="2340.000" width="595.303" height="19.000"/>
  <rect class="deactivating" x="1768.233" y="2340.000" width="0.000" height="19.000"/>
  <text class="right" x="1167.930" y="2354.000">dev-disk-by\x2dpartlabel-system.device</text>
  <rect class="activating" x="1172.931" y="2360.000" width="0.000" height="19.000"/>
  <rect class="active" x="1172.931" y="2360.000" width="595.302" height="19.000"/>
  <rect class="deactivating" x="1768.233" y="2360.000" width="0.000" height="19.000"/>
  <text class="right" x="1167.931" y="2374.000">dev-disk-by\x2dlabel-system.device</text>
  <rect class="activating" x="1172.932" y="2380.000" width="0.000" height="19.000"/>
  <rect class="active" x="1172.932" y="2380.000" width="595.301" height="19.000"/>
  <rect class="deactivating" x="1768.233" y="2380.000" width="0.000" height="19.000"/>
  <text class="right" x="1167.932" y="2394.000">dev-disk-by\x2did-memstick\x2dSU32G_0x2297b68a\x2dpart6.device</text>
  <rect class="activating" x="1172.933" y="2400.000" width="0.000" height="19.000"/>
  <rect class="active" x="1172.933" y="2400.000" width="595.301" height="19.000"/>
  <rect class="deactivating" x="1768.233" y="2400.000" width="0.000" height="19.000"/>
  <text class="right" x="1167.933" y="2414.000">dev-mmcblk0p6.device</text>
  <rect class="activating" x="1172.934" y="2420.000" width="0.000" height="19.000"/>
  <rect class="active" x="1172.934" y="2420.000" width="595.300" height="19.000"/>
  <rect class="deactivating" x="1768.233" y="2420.000" width="0.000" height="19.000"/>
  <text class="right" x="1167.934" y="2434.000">sys-devices-soc.0-2100000.aips\x2dbus-2198000.usdhc-mmc_host-mmc0-mmc0:aaaa-block-mmcblk0-mmcblk0p6.device</text>
  <rect class="activating" x="1178.938" y="2440.000" width="0.000" height="19.000"/>
  <rect class="active" x="1178.938" y="2440.000" width="589.296" height="19.000"/>
  <rect class="deactivating" x="1768.233" y="2440.000" width="0.000" height="19.000"/>
  <text class="right" x="1173.938" y="2454.000">dev-disk-by\x2duuid-FABD\x2d70F1.device</text>
  <rect class="activating" x="1178.939" y="2460.000" width="0.000" height="19.000"/>
  <rect class="active" x="1178.939" y="2460.000" width="589.294" height="19.000"/>
  <rect class="deactivating" x="1768.233" y="2460.000" width="0.000" height="19.000"/>
  <text class="right" x="1173.939" y="2474.000">dev-disk-by\x2dpath-platform\x2d2198000.usdhc\x2dpart1.device</text>
  <rect class="activating" x="1178.940" y="2480.000" width="0.000" height="19.000"/>
  <rect class="active" x="1178.940" y="2480.000" width="589.293" height="19.000"/>
  <rect class="deactivating" x="1768.233" y="2480.000" width="0.000" height="19.000"/>
  <text class="right" x="1173.940" y="2494.000">dev-disk-by\x2dpartuuid-8f11105c\x2d9b39\x2d4425\x2d9e8d\x2d9b489bfb32e6.device</text>
  <rect class="activating" x="1178.941" y="2500.000" width="0.000" height="19.000"/>
  <rect class="active" x="1178.941" y="2500.000" width="589.292" height="19.000"/>
  <rect class="deactivating" x="1768.233" y="2500.000" width="0.000" height="19.000"/>
  <text class="right" x="1173.941" y="2514.000">dev-disk-by\x2dpartlabel-boot.device</text>
  <rect class="activating" x="1178.942" y="2520.000" width="0.000" height="19.000"/>
  <rect class="active" x="1178.942" y="2520.000" width="589.291" height="19.000"/>
  <rect class="deactivating" x="1768.233" y="2520.000" width="0.000" height="19.000"/>
  <text class="right" x="1173.942" y="2534.000">dev-disk-by\x2dlabel-boot.device</text>
  <rect class="activating" x="1178.943" y="2540.000" width="0.000" height="19.000"/>
  <rect class="active" x="1178.943" y="2540.000" width="589.291" height="19.000"/>
  <rect class="deactivating" x="1768.233" y="2540.000" width="0.000" height="19.000"/>
  <text class="right" x="1173.943" y="2554.000">dev-disk-by\x2did-memstick\x2dSU32G_0x2297b68a\x2dpart1.device</text>
  <rect class="activating" x="1178.943" y="2560.000" width="0.000" height="19.000"/>
  <rect class="active" x="1178.943" y="2560.000" width="589.290" height="19.000"/>
  <rect class="deactivating" x="1768.233" y="2560.000" width="0.000" height="19.000"/>
  <text class="right" x="1173.943" y="2574.000">dev-mmcblk0p1.device</text>
  <rect class="activating" x="1178.944" y="2580.000" width="0.000" height="19.000"/>
  <rect class="active" x="1178.944" y="2580.000" width="589.289" height="19.000"/>
  <rect class="deactivating" x="1768.233" y="2580.000" width="0.000" height="19.000"/>
  <text class="right" x="1173.944" y="2594.000">sys-devices-soc.0-2100000.aips\x2dbus-2198000.usdhc-mmc_host-mmc0-mmc0:aaaa-block-mmcblk0-mmcblk0p1.device</text>
  <rect class="activating" x="1179.408" y="2600.000" width="0.000" height="19.000"/>
  <rect class="active" x="1179.408" y="2600.000" width="588.825" height="19.000"/>
  <rect class="deactivating" x="1768.233" y="2600.000" width="0.000" height="19.000"/>
  <text class="right" x="1174.408" y="2614.000">sys-devices-sound_sgtl5000.30-sound-card0.device</text>
  <rect class="activating" x="1179.425" y="2620.000" width="0.000" height="19.000"/>
  <rect class="active" x="1179.425" y="2620.000" width="588.808" height="19.000"/>
  <rect class="deactivating" x="1768.233" y="2620.000" width="0.000" height="19.000"/>
  <text class="right" x="1174.425" y="2634.000">sound.target</text>
  <rect class="activating" x="1215.153" y="2640.000" width="23.874" height="19.000"/>
  <rect class="active" x="1239.027" y="2640.000" width="529.206" height="19.000"/>
  <rect class="deactivating" x="1768.233" y="2640.000" width="0.000" height="19.000"/>
  <text class="right" x="1210.153" y="2654.000">systemd-user-sessions.service (238ms)</text>
  <rect class="activating" x="1245.084" y="2660.000" width="491.202" height="19.000"/>
  <rect class="active" x="1736.286" y="2660.000" width="31.948" height="19.000"/>
  <rect class="deactivating" x="1768.233" y="2660.000" width="0.000" height="19.000"/>
  <text class="right" x="1240.084" y="2674.000">chaiwala-user@1000.service (4.912s)</text>
  <rect class="activating" x="1263.077" y="2680.000" width="29.674" height="19.000"/>
  <rect class="active" x="1292.750" y="2680.000" width="0.000" height="19.000"/>
  <rect class="deactivating" x="1292.750" y="2680.000" width="0.000" height="19.000"/>
  <text class="right" x="1258.077" y="2694.000">plymouth-quit-wait.service (296ms)</text>
  <rect class="activating" x="1276.077" y="2700.000" width="36.352" height="19.000"/>
  <rect class="active" x="1312.429" y="2700.000" width="0.000" height="19.000"/>
  <rect class="deactivating" x="1312.429" y="2700.000" width="0.000" height="19.000"/>
  <text class="right" x="1271.077" y="2714.000">plymouth-quit.service (363ms)</text>
  <rect class="activating" x="1340.380" y="2720.000" width="0.000" height="19.000"/>
  <rect class="active" x="1340.380" y="2720.000" width="427.853" height="19.000"/>
  <rect class="deactivating" x="1768.233" y="2720.000" width="0.000" height="19.000"/>
  <text class="right" x="1335.380" y="2734.000">getty@tty1.service</text>
  <rect class="activating" x="1348.562" y="2740.000" width="0.000" height="19.000"/>
  <rect class="active" x="1348.562" y="2740.000" width="419.672" height="19.000"/>
  <rect class="deactivating" x="1768.233" y="2740.000" width="0.000" height="19.000"/>
  <text class="right" x="1343.562" y="2754.000">serial-getty@ttymxc1.service</text>
  <rect class="activating" x="1348.666" y="2760.000" width="0.000" height="19.000"/>
  <rect class="active" x="1348.666" y="2760.000" width="419.567" height="19.000"/>
  <rect class="deactivating" x="1768.233" y="2760.000" width="0.000" height="19.000"/>
  <text class="right" x="1343.666" y="2774.000">getty.target</text>
  <rect class="activating" x="1354.690" y="2780.000" width="0.000" height="19.000"/>
  <rect class="active" x="1354.690" y="2780.000" width="413.543" height="19.000"/>
  <rect class="deactivating" x="1768.233" y="2780.000" width="0.000" height="19.000"/>
  <text class="right" x="1349.690" y="2794.000">var-lib-chaiwala\x2dupdater-root.mount</text>
  <rect class="activating" x="1736.341" y="2800.000" width="0.000" height="19.000"/>
  <rect class="active" x="1736.341" y="2800.000" width="31.893" height="19.000"/>
  <rect class="deactivating" x="1768.233" y="2800.000" width="0.000" height="19.000"/>
  <text class="left" x="1741.341" y="2814.000">multi-user.target</text>
  <rect class="activating" x="1736.360" y="2820.000" width="0.000" height="19.000"/>
  <rect class="active" x="1736.360" y="2820.000" width="31.873" height="19.000"/>
  <rect class="deactivating" x="1768.233" y="2820.000" width="0.000" height="19.000"/>
  <text class="left" x="1741.360" y="2834.000">graphical.target</text>
  <rect class="activating" x="1754.227" y="2840.000" width="2.583" height="19.000"/>
  <rect class="active" x="1756.810" y="2840.000" width="0.000" height="19.000"/>
  <rect class="deactivating" x="1756.810" y="2840.000" width="0.000" height="19.000"/>
  <text class="left" x="1759.227" y="2854.000">systemd-update-utmp-runlevel.service (25ms)</text>
</g>

</svg>